<svg xmlns="http://www.w3.org/2000/svg" fill="none" viewBox="0 0 52 52">
  <path stroke="#333" d="M37.5 25H49v24H3V25h11.5"/>
  <path stroke="#C00" d="M1 51h50V1H1v50z"/>
  <path stroke="#333" d="M26 20v10"/>
  <path stroke="#333" d="M21 25h10"/>
</svg>
