<svg xmlns="http://www.w3.org/2000/svg" fill="none" viewBox="0 0 120 80">
  <path fill="#fff" d="M70.6357 3.42467C57.5501 11.0528 39.7702 21.297 39.6381 21.297c-.088 0-1.819-.97-3.8728-2.1458-2.0391-1.1905-8.3912-4.8649-14.0978-8.1719-5.7066-3.307-10.4743-5.99667-10.577-5.96728-.1027.0294-2.64062 1.46977-5.63329 3.2041L0 11.3761v45.8568l1.58435.8965c.86553.4998 6.19071 3.5863 11.83865 6.8492 5.6479 3.2775 13.7164 7.9367 17.9266 10.3765 4.1956 2.4398 7.8044 4.5122 8.0098 4.6004.3228.147.6455 0 3.2714-1.5286 1.6137-.9259 4.9731-2.8807 7.467-4.3211l4.5477-2.6309.1467-26.3823 4.2543-2.4692.044 13.0809c.0293 11.6847.0586 13.081.2494 13.0075.132-.0441 3.5061-1.9842 7.511-4.2918 4.0048-2.3222 7.3496-4.2182 7.4376-4.2182.088 0 4.3276 2.4251 9.4034 5.3647 19.1741 11.1261 24.5571 14.2273 24.9091 14.389.323.147.837-.1176 5.883-3.0424L120 73.7237v-5.35c0-2.9248-.044-5.3352-.103-5.3352-.073 0-2.552 1.4256-5.545 3.16l-5.428 3.1453-.044-2.7044-.029-2.6897-2.127-1.2346-2.127-1.2199v-9.818c0-5.3941-.03-9.8034-.074-9.8034s-4.166 2.3516-9.1391 5.2324c-4.9731 2.8807-9.7995 5.6733-10.6944 6.2024-.9096.5144-1.6577.9847-1.6577 1.0435.0147.0441 3.7995 2.2635 8.4352 4.9385l8.4352 4.8502v2.4545c0 1.3669-.044 2.4692-.088 2.4692-.0587 0-5.8386-3.3217-12.8362-7.3782l-12.7482-7.3636V34.3192c0-11.0674.0587-19.9301.1321-19.8566.0586.0882 3.9022 6.7316 8.5232 14.7712 4.621 8.0396 8.4939 14.7124 8.5966 14.83.1467.1616 1.5696-.6027 8.7143-4.7474 4.694-2.7191 8.567-4.9384 8.596-4.9384.03 0 .059 6.658.059 14.7858 0 8.4512.059 14.7565.132 14.7271.073-.0294 2.582-1.4697 5.574-3.2041l5.443-3.16V24.9421l-.469.2939c-.529.3234-13.321 7.731-14.7 8.51-.469.2645-.88.4703-.895.4556-.014-.0294-3.315-5.7615-7.3345-12.7576-4.0196-6.9961-7.6284-13.25728-8.0098-13.90398l-.7042-1.20521-5.4865-3.1747C79.379 1.41109 76.8264-.014585 76.709.00011263c-.1173 0-2.8459 1.54325737-6.0733 3.42455737zm9.11 3.98307c1.599.94066 2.9193 1.76372 2.9193 1.83721 0 .13228-7.5256 4.51215-37.0855 21.60555l-5.9707 3.454-.0734 40.0071-15.0366-8.701v-5.6587l-.0147-5.6586-2.0538-1.1758c-1.1296-.6467-2.1125-1.1905-2.1858-1.2199-.088-.0294-.1614 2.1018-.176 5.5263l-.044 5.5852-7.5257-4.3359-7.51103-4.3505V14.2716l3.09536-1.7932L11.1638 10.7l5.4572 3.1453c3.0074 1.7344 9.4035 5.4382 14.2445 8.2454l8.7726 5.0707 13.379-7.731c7.3496-4.2476 15.6822-9.0831 18.4988-10.71456 2.8313-1.64614 5.1785-2.98363 5.2225-2.99833.044 0 1.3936.76428 3.0073 1.69023zM99.9022 54.5873c0 3.4686-.0293 4.1888-.1907 4.0859-.1174-.0587-1.7311-.9994-3.5941-2.087-1.8778-1.0877-3.4035-2.0136-3.4035-2.0577 0-.1029 6.9096-4.1153 7.0856-4.13.0587 0 .1027 1.8813.1027 4.1888zm8.9198 17.2551l.029 2.528-.616-.3675c-.352-.2204-1.306-.7643-2.127-1.2346l-1.511-.8377v-5.056l2.097 1.2199 2.084 1.2052.044 2.5427z"/>
  <path fill="#fff" d="M20.0978 40.0807v2.4692l2.2005 1.2787 2.2005 1.264-.0294-2.528-.044-2.528-2.0538-1.2052c-1.1295-.6614-2.0978-1.2052-2.1564-1.2052-.0734-.0147-.1174 1.1023-.1174 2.4545z"/>
</svg>
